Around the world in 30 minutes
…
```r
# Select the level 2 districts (adm2)
sf_sl <- read_sf("data/lka_adm_slsd_20200305_shp/lka_admbnda_adm2_slsd_20200305.shp") %>%
  select(ADM2_EN, geometry)
sf_sl
```

```
## Simple feature collection with 26 features and 1 field
## geometry type:  MULTIPOLYGON
## dimension:      XY
## bbox:           xmin: 79.51916 ymin: 5.918297 xmax: 81.8772 ymax: 9.835718
## geographic CRS: WGS 84
## # A tibble: 26 x 2
##    ADM2_EN                                                              geometry
##    <chr>                                                      <MULTIPOLYGON [°]>
##  1 [unknown]   (((79.80303 7.8503, 79.80333 7.849463, 79.80333 7.849463, 79.803~
##  2 Ampara      (((81.23892 7.738495, 81.23903 7.73846, 81.23912 7.738474, 81.23~
##  3 Anuradhapu~ (((80.79126 8.918771, 80.79164 8.918763, 80.79209 8.91885, 80.79~
##  4 Badulla     (((80.9806 7.61768, 80.98104 7.617651, 80.98152 7.617694, 80.982~
##  5 Batticaloa  (((81.76936 7.536074, 81.76918 7.536048, 81.76907 7.536107, 81.7~
##  6 Colombo     (((79.87696 6.98085, 79.87805 6.98068, 79.87808 6.980692, 79.878~
##  7 Galle       (((80.09646 6.132867, 80.09638 6.132866, 80.0963 6.132871, 80.09~
##  8 Gampaha     (((80.14677 7.312115, 80.14689 7.311824, 80.1469 7.311761, 80.14~
##  9 Hambantota  (((81.61401 6.572167, 81.61425 6.572167, 81.61462 6.572185, 81.6~
## 10 Jaffna      (((79.52615 9.383134, 79.52537 9.383026, 79.5245 9.383076, 79.52~
## # ... with 16 more rows
```
…
